…
``` r
# Largest and smallest enrollments overall and by governance
# 

# Largest overall:
first_last %>% 
    filter(year == 2006) %>%  
    arrange(desc(total_hs)) %>%  
    select(govern, common_name, total_hs)
```

    ## # A tibble: 126 x 3
    ##    govern  common_name          total_hs
    ##    <chr>   <chr>                   <dbl>
    ##  1 regular Lane Tech HS             4278
    ##  2 regular Kelly HS                 3155
    ##  3 regular Curie HS                 3062
    ##  4 charter Youth Connctns Chrtr     2507
    ##  5 regular Schurz HS                2417
    ##  6 regular Taft HS                  2416
    ##  7 regular Farragut HS              2389
    ##  8 regular Clemente HS              2384
    ##  9 regular Lincoln Park HS          2249
    ## 10 regular Steinmetz HS             2157
    ## # … with 116 more rows

``` r
first_last %>% 
    filter(year == 2018) %>%  
    arrange(desc(total_hs)) %>%  
    select(govern, common_name, total_hs)
```

    ## # A tibble: 183 x 3
    ##    govern  common_name     total_hs
    ##    <chr>   <chr>              <dbl>
    ##  1 regular Lane Tech HS        4190
    ##  2 regular Taft HS             3101
    ##  3 regular Curie HS            2916
    ##  4 regular Lincoln Park HS     2101
    ##  5 regular Young Magnet HS     1915
    ##  6 regular Kelly HS            1891
    ##  7 regular Jones CPHS          1865
    ##  8 regular Hubbard HS          1777
    ##  9 regular Schurz HS           1739
    ## 10 regular Juarez HS           1734
    ## # … with 173 more rows

``` r
# Smallest overall:
first_last %>% 
    filter(year == 2006) %>%  
    arrange(total_hs) %>%  
    select(govern, common_name, total_hs)
```

    ## # A tibble: 126 x 3
    ##    govern  common_name         total_hs
    ##    <chr>   <chr>                  <dbl>
    ##  1 regular Lindblom CPHS             53
    ##  2 regular Big Pict HS - Yards       77
    ##  3 regular Bowen HS                  77
    ##  4 charter Chgo Math/Sci Chtr        77
    ##  5 regular Fenger AA HS              81
    ##  6 regular Dugan Alt HS              82
    ##  7 regular Big Pict HS - Metro       84
    ##  8 regular DuSable HS                86
    ##  9 regular IDOC/Healy South HS       89
    ## 10 regular Spry Comm Links HS        93
    ## # … with 116 more rows

``` r
first_last %>% 
    filter(year == 2018) %>%  
    arrange(total_hs) %>%  
    select(govern, common_name, total_hs)
```

    ## # A tibble: 183 x 3
    ##    govern  common_name              total_hs
    ##    <chr>   <chr>                       <dbl>
    ##  1 other   Camelot Safe                    6
    ##  2 regular Simpson HS                     38
    ##  3 charter Collegiate                     40
    ##  4 other   Instituto Lozano               85
    ##  5 regular TEAM Englewood HS              92
    ##  6 regular Hope CPHS                      95
    ##  7 other   YCCS-Holistic                  95
    ##  8 charter Foundations                    97
    ##  9 regular Douglass HS                   101
    ## 10 regular Peace & Education Alt HS      103
    ## # … with 173 more rows

``` r
# Largest of regular governance:
first_last %>% 
    filter(year == 2006 & govern == "regular") %>%  
    arrange(desc(total_hs)) %>%  
    select(govern, common_name, total_hs)
```

    ## # A tibble: 115 x 3
    ##    govern  common_name     total_hs
    ##    <chr>   <chr>              <dbl>
    ##  1 regular Lane Tech HS        4278
    ##  2 regular Kelly HS            3155
    ##  3 regular Curie HS            3062
    ##  4 regular Schurz HS           2417
    ##  5 regular Taft HS             2416
    ##  6 regular Farragut HS         2389
    ##  7 regular Clemente HS         2384
    ##  8 regular Lincoln Park HS     2249
    ##  9 regular Steinmetz HS        2157
    ## 10 regular Bogan Tech HS       2119
    ## # … with 105 more rows

``` r
first_last %>% 
    filter(year == 2018 & govern == "regular") %>%  
    arrange(desc(total_hs)) %>%  
    select(govern, common_name, total_hs)
```

    ## # A tibble: 97 x 3
    ##    govern  common_name     total_hs
    ##    <chr>   <chr>              <dbl>
    ##  1 regular Lane Tech HS        4190
    ##  2 regular Taft HS             3101
    ##  3 regular Curie HS            2916
    ##  4 regular Lincoln Park HS     2101
    ##  5 regular Young Magnet HS     1915
    ##  6 regular Kelly HS            1891
    ##  7 regular Jones CPHS          1865
    ##  8 regular Hubbard HS          1777
    ##  9 regular Schurz HS           1739
    ## 10 regular Juarez HS           1734
    ## # … with 87 more rows

``` r
# Smallest of regular governance:
first_last %>% 
    filter(year == 2006 & govern == "regular") %>%  
    arrange(total_hs) %>%  
    select(govern, common_name, total_hs)
```

    ## # A tibble: 115 x 3
    ##    govern  common_name         total_hs
    ##    <chr>   <chr>                  <dbl>
    ##  1 regular Lindblom CPHS             53
    ##  2 regular Big Pict HS - Yards       77
    ##  3 regular Bowen HS                  77
    ##  4 regular Fenger AA HS              81
    ##  5 regular Dugan Alt HS              82
    ##  6 regular Big Pict HS - Metro       84
    ##  7 regular DuSable HS                86
    ##  8 regular IDOC/Healy South HS       89
    ##  9 regular Spry Comm Links HS        93
    ## 10 regular Las Casas HS              93
    ## # … with 105 more rows

``` r
first_last %>% 
    filter(year == 2018 & govern == "regular") %>%  
    arrange(total_hs) %>%  
    select(govern, common_name, total_hs)
```

    ## # A tibble: 97 x 3
    ##    govern  common_name              total_hs
    ##    <chr>   <chr>                       <dbl>
    ##  1 regular Simpson HS                     38
    ##  2 regular TEAM Englewood HS              92
    ##  3 regular Hope CPHS                      95
    ##  4 regular Douglass HS                   101
    ##  5 regular Peace & Education Alt HS      103
    ##  6 regular Manley HS                     114
    ##  7 regular Graham, R. Trng CTR           117
    ##  8 regular Robeson HS                    128
    ##  9 regular Spry Comm Links HS            129
    ## 10 regular Harper HS                     134
    ## # … with 87 more rows
…
``` r
first_last %>% 
    filter(year == 2018 & govern == "charter") %>%  
    arrange(desc(total_hs)) %>%  
    select(govern, common_name, total_hs)
```

    ## # A tibble: 48 x 3
    ##    govern  common_name                total_hs
    ##    <chr>   <chr>                         <dbl>
    ##  1 charter NSC-Bulls                      1137
    ##  2 charter Noble-ITW                      1019
    ##  3 charter NSC-Pritzker                    986
    ##  4 charter NSC-Muchin                      959
    ##  5 charter NSC-UIC                         935
    ##  6 charter Chgo Intl Chrt - Northtown      909
    ##  7 charter NSC-Englewood                   802
    ##  8 charter NSC-Comer                       782
    ##  9 charter Instituto Health                750
    ## 10 charter Intrinsic                       679
    ## # … with 38 more rows
…
``` r
first_last %>% 
    filter(year == 2018 & govern == "charter") %>%  
    arrange(total_hs) %>%  
    select(govern, common_name, total_hs)
```

    ## # A tibble: 48 x 3
    ##    govern  common_name           total_hs
    ##    <chr>   <chr>                    <dbl>
    ##  1 charter Collegiate                  40
    ##  2 charter Foundations                 97
    ##  3 charter Horizon-Southwest          110
    ##  4 charter Chicago Virtual Chtr       181
    ##  5 charter UNO-Rogers Park            182
    ##  6 charter Yng Women Ldrshp Chrt      193
    ##  7 charter Urban Prep-E Garfield      213
    ##  8 charter Perspectives Chrtr HS      260
    ##  9 charter CIC-Quest North            262
    ## 10 charter Urban Prep Chtr HS         263
    ## # … with 38 more rows
…
``` r
# Greatest decline over period:
deltas %>%  
    arrange(delta) %>%  
    select(common_name, total_hs, delta) %>%  
    head(87)
```

    ## # A tibble: 87 x 3
    ##    common_name    total_hs delta
    ##    <chr>             <dbl> <dbl>
    ##  1 Farragut HS         713 -1676
    ##  2 Clemente HS         754 -1630
    ##  3 Julian HS           516 -1435
    ##  4 Kelvyn Park HS      322 -1372
    ##  5 Bogan Tech HS       781 -1338
    ##  6 Kelly HS           1891 -1264
    ##  7 Tilden HS           250 -1179
    ##  8 Gage Park HS        328 -1173
    ##  9 Dunbar Voc HS       457 -1170
    ## 10 Chicago Voc HS      880 -1150
    ## # … with 77 more rows
…
``` r
# Greatest decline over period by percent:
deltas %>%  
    arrange(delta_pct_by_100) %>%  
    select(common_name, delta, delta_pct_by_100) %>%  
    head(25)
```

    ## # A tibble: 25 x 3
    ##    common_name    delta delta_pct_by_100
    ##    <chr>          <dbl>            <dbl>
    ##  1 Robeson HS     -1130           -0.898
    ##  2 Harper HS      -1127           -0.894
    ##  3 Hope CPHS       -774           -0.891
    ##  4 Manley HS       -848           -0.881
    ##  5 Hirsch HS       -761           -0.847
    ##  6 Tilden HS      -1179           -0.825
    ##  7 Kelvyn Park HS -1372           -0.810
    ##  8 Simpson HS      -142           -0.789
    ##  9 Corliss HS     -1117           -0.783
    ## 10 Gage Park HS   -1173           -0.781
    ## # … with 15 more rows
…
``` r
# Fastest rate of decline over period, annualized
deltas %>%  
    arrange(delta_rate) %>%  
    select(common_name, delta_pct_by_100, delta_rate) %>%  
    head(25)
```

    ## # A tibble: 25 x 3
    ##    common_name    delta_pct_by_100 delta_rate
    ##    <chr>                     <dbl>      <dbl>
    ##  1 Robeson HS               -0.898     -0.173
    ##  2 Harper HS                -0.894     -0.170
    ##  3 Hope CPHS                -0.891     -0.168
    ##  4 Manley HS                -0.881     -0.163
    ##  5 Hirsch HS                -0.847     -0.145
    ##  6 Tilden HS                -0.825     -0.135
    ##  7 Kelvyn Park HS           -0.810     -0.129
    ##  8 Simpson HS               -0.789     -0.122
    ##  9 Corliss HS               -0.783     -0.119
    ## 10 Gage Park HS             -0.781     -0.119
    ## # … with 15 more rows
…
ranked <- both %>% 
    mutate(common_name = deltas$common_name[match(school_id,
                                                  deltas$school_id)]) %>% 
    spread(year, total_hs, drop = TRUE) %>% 
    rename(hs_06 = `2006`, hs_18 = `2018`) %>% 
    mutate(rank_06 = trunc(rank(-hs_06, ties.method = "min")), 
           rank_18 = trunc(rank(-hs_18, ties.method = "min")))

ranked %>%  
    arrange(rank_06) %>%  
    select(govern, common_name, rank_06, rank_18) #  %>% print(15)
```

    ## # A tibble: 87 x 4
    ##    govern  common_name     rank_06 rank_18
    ##    <chr>   <chr>             <dbl>   <dbl>
    ##  1 regular Lane Tech HS          1       1
    ##  2 regular Kelly HS              2       6
    ##  3 regular Curie HS              3       3
    ##  4 regular Schurz HS             4       9
    ##  5 regular Taft HS               5       2
    ##  6 regular Farragut HS           6      38
    ##  7 regular Clemente HS           7      35
    ##  8 regular Lincoln Park HS       8       4
    ##  9 regular Steinmetz HS          9      20
    ## 10 regular Bogan Tech HS        10      34
    ## # … with 77 more rows

``` r
ranked %>%  
    arrange(desc(rank_06)) %>%  
    select(govern, common_name, rank_06, rank_18) #  %>% print(15)
```

    ## # A tibble: 87 x 4
    ##    govern  common_name              rank_06 rank_18
    ##    <chr>   <chr>                      <dbl>   <dbl>
    ##  1 charter Chgo Math/Sci Chtr            87      56
    ##  2 regular Peace & Education Alt HS      86      84
    ##  3 regular Spry Comm Links HS            85      80
    ##  4 regular Sch Of Soc Just HS            82      64
    ##  5 regular Infinity HS                   82      49
    ##  6 regular Multicultural Arts HS         82      70
    ##  7 regular World Language HS             81      54
    ##  8 regular Rickover Naval HS             80      42
    ##  9 regular Lindblom MSHS                 79      24
    ## 10 regular Uplift Community HS           78      69
    ## # … with 77 more rows
…
