…
When one is comfortable with reshaping, useful things are possible. Again returning to longitudinal data, one often wants to make a static comparison between the units at two different dates: How do the schools rank by their enrollments at the beginning and end of the survey? One can of course filter two lists, after creating the ranking variables, and run around looking at them separately. Or, having become comfortable with data spreading, one can generate a side-by-side table.

``` r
ranked <- talk_dat %>% spread(year, total_hs, drop = TRUE) %>% 
    rename(hs_06 = `2006`, 
           hs_18 = `2018`) %>% 
    mutate(rank_06 = trunc(rank(-hs_06, ties.method = "min")), 
           rank_18 = trunc(rank(-hs_18, ties.method = "min"))) %>%
    arrange(rank_06) %>%
    select(-school_id)

ranked
```

    ## # A tibble: 84 x 6
    ##    govern  common_name     hs_06 hs_18 rank_06 rank_18
    ##    <chr>   <chr>           <dbl> <dbl>   <dbl>   <dbl>
    ##  1 regular Lane Tech HS     4278  4190       1       1
    ##  2 regular Kelly HS         3155  1891       2       6
    ##  3 regular Curie HS         3062  2916       3       3
    ##  4 regular Schurz HS        2417  1739       4       9
    ##  5 regular Taft HS          2416  3101       5       2
    ##  6 regular Farragut HS      2389   713       6      37
    ##  7 regular Clemente HS      2384   754       7      34
    ##  8 regular Lincoln Park HS  2249  2101       8       4
    ##  9 regular Steinmetz HS     2157  1278       9      20
    ## 10 regular Bogan Tech HS    2119   781      10      33
    ## # … with 74 more rows
…
