Shifts in Enrollment Distribution among Chicago Highschools: Insights from reshaping CPS data
…
Un-tidying for a Side-by-side View

ranked <- talk_dat %>% spread(year, total_hs)

# A tibble: 84 x 4
   govern  common_name     rank_06 rank_18
   <chr>   <chr>             <dbl>   <dbl>
 1 regular Lane Tech HS          1       1
 2 regular Kelly HS              2       6
 3 regular Curie HS              3       3
 4 regular Schurz HS             4       9
 5 regular Taft HS               5       2
 6 regular Farragut HS           6      37
 7 regular Clemente HS           7      34
 8 regular Lincoln Park HS       8       4
 9 regular Steinmetz HS          9      20
10 regular Bogan Tech HS        10      33
#  with 74 more rows
…
