…
```r
ranked <- talk_dat %>% spread(year, total_hs, drop = TRUE) %>% 
    rename(hs_06 = `2006`, 
           hs_18 = `2018`) %>% 
    mutate(rank_06 = trunc(rank(-hs_06, ties.method = "min")), 
           rank_18 = trunc(rank(-hs_18, ties.method = "min"))) %>%
    arrange(rank_06) %>%
    select(-c(school_id, hs_06, hs_18))

ranked
```

```
# A tibble: 84 x 4
   govern  common_name     rank_06 rank_18
   <chr>   <chr>             <dbl>   <dbl>
 1 regular Lane Tech HS          1       1
 2 regular Kelly HS              2       6
 3 regular Curie HS              3       3
 4 regular Schurz HS             4       9
 5 regular Taft HS               5       2
 6 regular Farragut HS           6      37
 7 regular Clemente HS           7      34
 8 regular Lincoln Park HS       8       4
 9 regular Steinmetz HS          9      20
10 regular Bogan Tech HS        10      33
# … with 74 more rows
```
…
